%YAML 1.1
%TAG !u! tag:unity3d.com,2011:
--- !u!74 &7400000
AnimationClip:
  m_ObjectHideFlags: 0
  m_CorrespondingSourceObject: {fileID: 0}
  m_PrefabInstance: {fileID: 0}
  m_PrefabAsset: {fileID: 0}
  m_Name: GoldEnemyS1
  serializedVersion: 7
  m_Legacy: 0
  m_Compressed: 0
  m_UseHighQualityCurve: 1
  m_RotationCurves: []
  m_CompressedRotationCurves: []
  m_EulerCurves: []
  m_PositionCurves: []
  m_ScaleCurves: []
  m_FloatCurves: []
  m_PPtrCurves:
  - serializedVersion: 2
    curve:
    - time: 0
      value: {fileID: -4247583392864517189, guid: 3d8105fe18293cc46b50c74f68d8300c, type: 3}
    - time: 0.083333336
      value: {fileID: -4317747635421170367, guid: 3d8105fe18293cc46b50c74f68d8300c, type: 3}
    - time: 0.16666667
      value: {fileID: -3393182818948820392, guid: 3d8105fe18293cc46b50c74f68d8300c, type: 3}
    - time: 0.25
      value: {fileID: 2398655385374489144, guid: 3d8105fe18293cc46b50c74f68d8300c, type: 3}
    - time: 0.33333334
      value: {fileID: 4682852800306590024, guid: 3d8105fe18293cc46b50c74f68d8300c, type: 3}
    - time: 0.41666666
      value: {fileID: 4834004516345087520, guid: 3d8105fe18293cc46b50c74f68d8300c, type: 3}
    - time: 0.5
      value: {fileID: -6051433720221413619, guid: 3d8105fe18293cc46b50c74f68d8300c, type: 3}
    - time: 0.5833333
      value: {fileID: -7456734959377845707, guid: 3d8105fe18293cc46b50c74f68d8300c, type: 3}
    - time: 0.6666667
      value: {fileID: -4378245711936932552, guid: 3d8105fe18293cc46b50c74f68d8300c, type: 3}
    - time: 0.75
      value: {fileID: 487922434269189599, guid: 3d8105fe18293cc46b50c74f68d8300c, type: 3}
    - time: 0.8333333
      value: {fileID: 701229717109338464, guid: 3d8105fe18293cc46b50c74f68d8300c, type: 3}
    - time: 0.9166667
      value: {fileID: -7929677056532216005, guid: 3d8105fe18293cc46b50c74f68d8300c, type: 3}
    - time: 1
      value: {fileID: -3043925510940307931, guid: 3d8105fe18293cc46b50c74f68d8300c, type: 3}
    - time: 1.0833334
      value: {fileID: -822891359853493339, guid: 3d8105fe18293cc46b50c74f68d8300c, type: 3}
    - time: 1.1666666
      value: {fileID: -6644187025963894050, guid: 3d8105fe18293cc46b50c74f68d8300c, type: 3}
    - time: 1.25
      value: {fileID: 2330691531758110572, guid: 3d8105fe18293cc46b50c74f68d8300c, type: 3}
    - time: 1.3333334
      value: {fileID: -8879450417995543642, guid: 3d8105fe18293cc46b50c74f68d8300c, type: 3}
    - time: 1.4166666
      value: {fileID: -7075845105762276499, guid: 3d8105fe18293cc46b50c74f68d8300c, type: 3}
    - time: 1.5
      value: {fileID: 6374437514111625690, guid: 3d8105fe18293cc46b50c74f68d8300c, type: 3}
    - time: 1.5833334
      value: {fileID: -8505287162344766469, guid: 3d8105fe18293cc46b50c74f68d8300c, type: 3}
    - time: 1.6666666
      value: {fileID: -3972308103471496540, guid: 3d8105fe18293cc46b50c74f68d8300c, type: 3}
    - time: 1.75
      value: {fileID: 8155266740886285473, guid: 3d8105fe18293cc46b50c74f68d8300c, type: 3}
    - time: 1.8333334
      value: {fileID: -1530026356880079918, guid: 3d8105fe18293cc46b50c74f68d8300c, type: 3}
    - time: 1.9166666
      value: {fileID: -8288080706656644213, guid: 3d8105fe18293cc46b50c74f68d8300c, type: 3}
    - time: 2
      value: {fileID: -8649669612477875652, guid: 3d8105fe18293cc46b50c74f68d8300c, type: 3}
    - time: 2.0833333
      value: {fileID: 4579963889825471110, guid: 3d8105fe18293cc46b50c74f68d8300c, type: 3}
    - time: 2.1666667
      value: {fileID: 2172934241841714227, guid: 3d8105fe18293cc46b50c74f68d8300c, type: 3}
    - time: 2.25
      value: {fileID: -3662834813761478142, guid: 3d8105fe18293cc46b50c74f68d8300c, type: 3}
    - time: 2.3333333
      value: {fileID: -8526120761013201093, guid: 3d8105fe18293cc46b50c74f68d8300c, type: 3}
    - time: 2.4166667
      value: {fileID: -9042744215986576560, guid: 3d8105fe18293cc46b50c74f68d8300c, type: 3}
    - time: 2.5
      value: {fileID: -1973500734425946560, guid: 3d8105fe18293cc46b50c74f68d8300c, type: 3}
    - time: 2.5833333
      value: {fileID: -8300611878522603731, guid: 3d8105fe18293cc46b50c74f68d8300c, type: 3}
    - time: 2.6666667
      value: {fileID: 5954506805824736224, guid: 3d8105fe18293cc46b50c74f68d8300c, type: 3}
    - time: 2.75
      value: {fileID: 6660474056288212676, guid: 3d8105fe18293cc46b50c74f68d8300c, type: 3}
    - time: 2.8333333
      value: {fileID: -2611252462151602930, guid: 3d8105fe18293cc46b50c74f68d8300c, type: 3}
    - time: 2.9166667
      value: {fileID: 3071213712206113796, guid: 3d8105fe18293cc46b50c74f68d8300c, type: 3}
    - time: 3
      value: {fileID: 5513873600843598117, guid: 3d8105fe18293cc46b50c74f68d8300c, type: 3}
    - time: 3.0833333
      value: {fileID: -4004857774082718594, guid: 3d8105fe18293cc46b50c74f68d8300c, type: 3}
    - time: 3.1666667
      value: {fileID: -1719697885901610840, guid: 3d8105fe18293cc46b50c74f68d8300c, type: 3}
    - time: 3.25
      value: {fileID: 61141285349381721, guid: 3d8105fe18293cc46b50c74f68d8300c, type: 3}
    - time: 3.3333333
      value: {fileID: 4510372320809618776, guid: 3d8105fe18293cc46b50c74f68d8300c, type: 3}
    - time: 3.4166667
      value: {fileID: -8424590303557739848, guid: 3d8105fe18293cc46b50c74f68d8300c, type: 3}
    - time: 3.5
      value: {fileID: 156844221957722122, guid: 3d8105fe18293cc46b50c74f68d8300c, type: 3}
    - time: 3.5833333
      value: {fileID: -3943459105947671956, guid: 3d8105fe18293cc46b50c74f68d8300c, type: 3}
    - time: 3.6666667
      value: {fileID: -309834857613097769, guid: 3d8105fe18293cc46b50c74f68d8300c, type: 3}
    - time: 3.75
      value: {fileID: -8039979616917650587, guid: 3d8105fe18293cc46b50c74f68d8300c, type: 3}
    - time: 3.8333333
      value: {fileID: 4461893810941007079, guid: 3d8105fe18293cc46b50c74f68d8300c, type: 3}
    - time: 3.9166667
      value: {fileID: -8414520067102496792, guid: 3d8105fe18293cc46b50c74f68d8300c, type: 3}
    - time: 4
      value: {fileID: -3131739455358842216, guid: 3d8105fe18293cc46b50c74f68d8300c, type: 3}
    - time: 4.0833335
      value: {fileID: 8201414482633073642, guid: 3d8105fe18293cc46b50c74f68d8300c, type: 3}
    - time: 4.1666665
      value: {fileID: 909518523849703914, guid: 3d8105fe18293cc46b50c74f68d8300c, type: 3}
    - time: 4.25
      value: {fileID: 7772587924534089714, guid: 3d8105fe18293cc46b50c74f68d8300c, type: 3}
    - time: 4.3333335
      value: {fileID: 7169714780210523168, guid: 3d8105fe18293cc46b50c74f68d8300c, type: 3}
    - time: 4.4166665
      value: {fileID: 7224354514752774088, guid: 3d8105fe18293cc46b50c74f68d8300c, type: 3}
    - time: 4.5
      value: {fileID: 1616893000530322116, guid: 3d8105fe18293cc46b50c74f68d8300c, type: 3}
    - time: 4.5833335
      value: {fileID: -282266065976489847, guid: 3d8105fe18293cc46b50c74f68d8300c, type: 3}
    - time: 4.6666665
      value: {fileID: 1397117761797063051, guid: 3d8105fe18293cc46b50c74f68d8300c, type: 3}
    - time: 4.75
      value: {fileID: -5435791968324843637, guid: 3d8105fe18293cc46b50c74f68d8300c, type: 3}
    - time: 4.8333335
      value: {fileID: 2815990819268171851, guid: 3d8105fe18293cc46b50c74f68d8300c, type: 3}
    - time: 4.9166665
      value: {fileID: 8818613477928701584, guid: 3d8105fe18293cc46b50c74f68d8300c, type: 3}
    - time: 5
      value: {fileID: 6212233173882809710, guid: 3d8105fe18293cc46b50c74f68d8300c, type: 3}
    - time: 5.0833335
      value: {fileID: 2610417338054723561, guid: 3d8105fe18293cc46b50c74f68d8300c, type: 3}
    - time: 5.1666665
      value: {fileID: -7154740766527353554, guid: 3d8105fe18293cc46b50c74f68d8300c, type: 3}
    - time: 5.25
      value: {fileID: 6084934029672437588, guid: 3d8105fe18293cc46b50c74f68d8300c, type: 3}
    - time: 5.3333335
      value: {fileID: 5585044899259843782, guid: 3d8105fe18293cc46b50c74f68d8300c, type: 3}
    - time: 5.4166665
      value: {fileID: 10194102327526682, guid: 3d8105fe18293cc46b50c74f68d8300c, type: 3}
    - time: 5.5
      value: {fileID: 1975724069179730347, guid: 3d8105fe18293cc46b50c74f68d8300c, type: 3}
    - time: 5.5833335
      value: {fileID: -4366354528369143183, guid: 3d8105fe18293cc46b50c74f68d8300c, type: 3}
    - time: 5.6666665
      value: {fileID: -510881952549414188, guid: 3d8105fe18293cc46b50c74f68d8300c, type: 3}
    - time: 5.75
      value: {fileID: 2210447590146439452, guid: 3d8105fe18293cc46b50c74f68d8300c, type: 3}
    - time: 5.8333335
      value: {fileID: -4702046102634442775, guid: 3d8105fe18293cc46b50c74f68d8300c, type: 3}
    - time: 5.9166665
      value: {fileID: 5822441026408388931, guid: 3d8105fe18293cc46b50c74f68d8300c, type: 3}
    - time: 6
      value: {fileID: 6941662606319028467, guid: 3d8105fe18293cc46b50c74f68d8300c, type: 3}
    - time: 6.0833335
      value: {fileID: -8223988093022163164, guid: 3d8105fe18293cc46b50c74f68d8300c, type: 3}
    - time: 6.1666665
      value: {fileID: 5534451896080979310, guid: 3d8105fe18293cc46b50c74f68d8300c, type: 3}
    - time: 6.25
      value: {fileID: 5892160268401589181, guid: 3d8105fe18293cc46b50c74f68d8300c, type: 3}
    - time: 6.3333335
      value: {fileID: -822563388451196870, guid: 3d8105fe18293cc46b50c74f68d8300c, type: 3}
    - time: 6.4166665
      value: {fileID: -4086655527554941699, guid: 3d8105fe18293cc46b50c74f68d8300c, type: 3}
    - time: 6.5
      value: {fileID: -2743779242737758242, guid: 3d8105fe18293cc46b50c74f68d8300c, type: 3}
    - time: 6.5833335
      value: {fileID: -288185893387584539, guid: 3d8105fe18293cc46b50c74f68d8300c, type: 3}
    - time: 6.6666665
      value: {fileID: 7085526809791004840, guid: 3d8105fe18293cc46b50c74f68d8300c, type: 3}
    - time: 6.75
      value: {fileID: 3005407841841597857, guid: 3d8105fe18293cc46b50c74f68d8300c, type: 3}
    - time: 6.8333335
      value: {fileID: 4183200903603427508, guid: 3d8105fe18293cc46b50c74f68d8300c, type: 3}
    - time: 6.9166665
      value: {fileID: -7544783549865614987, guid: 3d8105fe18293cc46b50c74f68d8300c, type: 3}
    - time: 7
      value: {fileID: 222584736008794274, guid: 3d8105fe18293cc46b50c74f68d8300c, type: 3}
    - time: 7.0833335
      value: {fileID: 8654285633300464107, guid: 3d8105fe18293cc46b50c74f68d8300c, type: 3}
    - time: 7.1666665
      value: {fileID: 3249565438418885198, guid: 3d8105fe18293cc46b50c74f68d8300c, type: 3}
    - time: 7.25
      value: {fileID: -3690720145839883277, guid: 3d8105fe18293cc46b50c74f68d8300c, type: 3}
    - time: 7.3333335
      value: {fileID: -5040447770225530335, guid: 3d8105fe18293cc46b50c74f68d8300c, type: 3}
    attribute: m_Sprite
    path: 
    classID: 212
    script: {fileID: 0}
    flags: 2
  m_SampleRate: 12
  m_WrapMode: 0
  m_Bounds:
    m_Center: {x: 0, y: 0, z: 0}
    m_Extent: {x: 0, y: 0, z: 0}
  m_ClipBindingConstant:
    genericBindings:
    - serializedVersion: 2
      path: 0
      attribute: 0
      script: {fileID: 0}
      typeID: 212
      customType: 23
      isPPtrCurve: 1
      isIntCurve: 0
      isSerializeReferenceCurve: 0
    pptrCurveMapping:
    - {fileID: -4247583392864517189, guid: 3d8105fe18293cc46b50c74f68d8300c, type: 3}
    - {fileID: -4317747635421170367, guid: 3d8105fe18293cc46b50c74f68d8300c, type: 3}
    - {fileID: -3393182818948820392, guid: 3d8105fe18293cc46b50c74f68d8300c, type: 3}
    - {fileID: 2398655385374489144, guid: 3d8105fe18293cc46b50c74f68d8300c, type: 3}
    - {fileID: 4682852800306590024, guid: 3d8105fe18293cc46b50c74f68d8300c, type: 3}
    - {fileID: 4834004516345087520, guid: 3d8105fe18293cc46b50c74f68d8300c, type: 3}
    - {fileID: -6051433720221413619, guid: 3d8105fe18293cc46b50c74f68d8300c, type: 3}
    - {fileID: -7456734959377845707, guid: 3d8105fe18293cc46b50c74f68d8300c, type: 3}
    - {fileID: -4378245711936932552, guid: 3d8105fe18293cc46b50c74f68d8300c, type: 3}
    - {fileID: 487922434269189599, guid: 3d8105fe18293cc46b50c74f68d8300c, type: 3}
    - {fileID: 701229717109338464, guid: 3d8105fe18293cc46b50c74f68d8300c, type: 3}
    - {fileID: -7929677056532216005, guid: 3d8105fe18293cc46b50c74f68d8300c, type: 3}
    - {fileID: -3043925510940307931, guid: 3d8105fe18293cc46b50c74f68d8300c, type: 3}
    - {fileID: -822891359853493339, guid: 3d8105fe18293cc46b50c74f68d8300c, type: 3}
    - {fileID: -6644187025963894050, guid: 3d8105fe18293cc46b50c74f68d8300c, type: 3}
    - {fileID: 2330691531758110572, guid: 3d8105fe18293cc46b50c74f68d8300c, type: 3}
    - {fileID: -8879450417995543642, guid: 3d8105fe18293cc46b50c74f68d8300c, type: 3}
    - {fileID: -7075845105762276499, guid: 3d8105fe18293cc46b50c74f68d8300c, type: 3}
    - {fileID: 6374437514111625690, guid: 3d8105fe18293cc46b50c74f68d8300c, type: 3}
    - {fileID: -8505287162344766469, guid: 3d8105fe18293cc46b50c74f68d8300c, type: 3}
    - {fileID: -3972308103471496540, guid: 3d8105fe18293cc46b50c74f68d8300c, type: 3}
    - {fileID: 8155266740886285473, guid: 3d8105fe18293cc46b50c74f68d8300c, type: 3}
    - {fileID: -1530026356880079918, guid: 3d8105fe18293cc46b50c74f68d8300c, type: 3}
    - {fileID: -8288080706656644213, guid: 3d8105fe18293cc46b50c74f68d8300c, type: 3}
    - {fileID: -8649669612477875652, guid: 3d8105fe18293cc46b50c74f68d8300c, type: 3}
    - {fileID: 4579963889825471110, guid: 3d8105fe18293cc46b50c74f68d8300c, type: 3}
    - {fileID: 2172934241841714227, guid: 3d8105fe18293cc46b50c74f68d8300c, type: 3}
    - {fileID: -3662834813761478142, guid: 3d8105fe18293cc46b50c74f68d8300c, type: 3}
    - {fileID: -8526120761013201093, guid: 3d8105fe18293cc46b50c74f68d8300c, type: 3}
    - {fileID: -9042744215986576560, guid: 3d8105fe18293cc46b50c74f68d8300c, type: 3}
    - {fileID: -1973500734425946560, guid: 3d8105fe18293cc46b50c74f68d8300c, type: 3}
    - {fileID: -8300611878522603731, guid: 3d8105fe18293cc46b50c74f68d8300c, type: 3}
    - {fileID: 5954506805824736224, guid: 3d8105fe18293cc46b50c74f68d8300c, type: 3}
    - {fileID: 6660474056288212676, guid: 3d8105fe18293cc46b50c74f68d8300c, type: 3}
    - {fileID: -2611252462151602930, guid: 3d8105fe18293cc46b50c74f68d8300c, type: 3}
    - {fileID: 3071213712206113796, guid: 3d8105fe18293cc46b50c74f68d8300c, type: 3}
    - {fileID: 5513873600843598117, guid: 3d8105fe18293cc46b50c74f68d8300c, type: 3}
    - {fileID: -4004857774082718594, guid: 3d8105fe18293cc46b50c74f68d8300c, type: 3}
    - {fileID: -1719697885901610840, guid: 3d8105fe18293cc46b50c74f68d8300c, type: 3}
    - {fileID: 61141285349381721, guid: 3d8105fe18293cc46b50c74f68d8300c, type: 3}
    - {fileID: 4510372320809618776, guid: 3d8105fe18293cc46b50c74f68d8300c, type: 3}
    - {fileID: -8424590303557739848, guid: 3d8105fe18293cc46b50c74f68d8300c, type: 3}
    - {fileID: 156844221957722122, guid: 3d8105fe18293cc46b50c74f68d8300c, type: 3}
    - {fileID: -3943459105947671956, guid: 3d8105fe18293cc46b50c74f68d8300c, type: 3}
    - {fileID: -309834857613097769, guid: 3d8105fe18293cc46b50c74f68d8300c, type: 3}
    - {fileID: -8039979616917650587, guid: 3d8105fe18293cc46b50c74f68d8300c, type: 3}
    - {fileID: 4461893810941007079, guid: 3d8105fe18293cc46b50c74f68d8300c, type: 3}
    - {fileID: -8414520067102496792, guid: 3d8105fe18293cc46b50c74f68d8300c, type: 3}
    - {fileID: -3131739455358842216, guid: 3d8105fe18293cc46b50c74f68d8300c, type: 3}
    - {fileID: 8201414482633073642, guid: 3d8105fe18293cc46b50c74f68d8300c, type: 3}
    - {fileID: 909518523849703914, guid: 3d8105fe18293cc46b50c74f68d8300c, type: 3}
    - {fileID: 7772587924534089714, guid: 3d8105fe18293cc46b50c74f68d8300c, type: 3}
    - {fileID: 7169714780210523168, guid: 3d8105fe18293cc46b50c74f68d8300c, type: 3}
    - {fileID: 7224354514752774088, guid: 3d8105fe18293cc46b50c74f68d8300c, type: 3}
    - {fileID: 1616893000530322116, guid: 3d8105fe18293cc46b50c74f68d8300c, type: 3}
    - {fileID: -282266065976489847, guid: 3d8105fe18293cc46b50c74f68d8300c, type: 3}
    - {fileID: 1397117761797063051, guid: 3d8105fe18293cc46b50c74f68d8300c, type: 3}
    - {fileID: -5435791968324843637, guid: 3d8105fe18293cc46b50c74f68d8300c, type: 3}
    - {fileID: 2815990819268171851, guid: 3d8105fe18293cc46b50c74f68d8300c, type: 3}
    - {fileID: 8818613477928701584, guid: 3d8105fe18293cc46b50c74f68d8300c, type: 3}
    - {fileID: 6212233173882809710, guid: 3d8105fe18293cc46b50c74f68d8300c, type: 3}
    - {fileID: 2610417338054723561, guid: 3d8105fe18293cc46b50c74f68d8300c, type: 3}
    - {fileID: -7154740766527353554, guid: 3d8105fe18293cc46b50c74f68d8300c, type: 3}
    - {fileID: 6084934029672437588, guid: 3d8105fe18293cc46b50c74f68d8300c, type: 3}
    - {fileID: 5585044899259843782, guid: 3d8105fe18293cc46b50c74f68d8300c, type: 3}
    - {fileID: 10194102327526682, guid: 3d8105fe18293cc46b50c74f68d8300c, type: 3}
    - {fileID: 1975724069179730347, guid: 3d8105fe18293cc46b50c74f68d8300c, type: 3}
    - {fileID: -4366354528369143183, guid: 3d8105fe18293cc46b50c74f68d8300c, type: 3}
    - {fileID: -510881952549414188, guid: 3d8105fe18293cc46b50c74f68d8300c, type: 3}
    - {fileID: 2210447590146439452, guid: 3d8105fe18293cc46b50c74f68d8300c, type: 3}
    - {fileID: -4702046102634442775, guid: 3d8105fe18293cc46b50c74f68d8300c, type: 3}
    - {fileID: 5822441026408388931, guid: 3d8105fe18293cc46b50c74f68d8300c, type: 3}
    - {fileID: 6941662606319028467, guid: 3d8105fe18293cc46b50c74f68d8300c, type: 3}
    - {fileID: -8223988093022163164, guid: 3d8105fe18293cc46b50c74f68d8300c, type: 3}
    - {fileID: 5534451896080979310, guid: 3d8105fe18293cc46b50c74f68d8300c, type: 3}
    - {fileID: 5892160268401589181, guid: 3d8105fe18293cc46b50c74f68d8300c, type: 3}
    - {fileID: -822563388451196870, guid: 3d8105fe18293cc46b50c74f68d8300c, type: 3}
    - {fileID: -4086655527554941699, guid: 3d8105fe18293cc46b50c74f68d8300c, type: 3}
    - {fileID: -2743779242737758242, guid: 3d8105fe18293cc46b50c74f68d8300c, type: 3}
    - {fileID: -288185893387584539, guid: 3d8105fe18293cc46b50c74f68d8300c, type: 3}
    - {fileID: 7085526809791004840, guid: 3d8105fe18293cc46b50c74f68d8300c, type: 3}
    - {fileID: 3005407841841597857, guid: 3d8105fe18293cc46b50c74f68d8300c, type: 3}
    - {fileID: 4183200903603427508, guid: 3d8105fe18293cc46b50c74f68d8300c, type: 3}
    - {fileID: -7544783549865614987, guid: 3d8105fe18293cc46b50c74f68d8300c, type: 3}
    - {fileID: 222584736008794274, guid: 3d8105fe18293cc46b50c74f68d8300c, type: 3}
    - {fileID: 8654285633300464107, guid: 3d8105fe18293cc46b50c74f68d8300c, type: 3}
    - {fileID: 3249565438418885198, guid: 3d8105fe18293cc46b50c74f68d8300c, type: 3}
    - {fileID: -3690720145839883277, guid: 3d8105fe18293cc46b50c74f68d8300c, type: 3}
    - {fileID: -5040447770225530335, guid: 3d8105fe18293cc46b50c74f68d8300c, type: 3}
  m_AnimationClipSettings:
    serializedVersion: 2
    m_AdditiveReferencePoseClip: {fileID: 0}
    m_AdditiveReferencePoseTime: 0
    m_StartTime: 0
    m_StopTime: 7.416667
    m_OrientationOffsetY: 0
    m_Level: 0
    m_CycleOffset: 0
    m_HasAdditiveReferencePose: 0
    m_LoopTime: 1
    m_LoopBlend: 0
    m_LoopBlendOrientation: 0
    m_LoopBlendPositionY: 0
    m_LoopBlendPositionXZ: 0
    m_KeepOriginalOrientation: 0
    m_KeepOriginalPositionY: 1
    m_KeepOriginalPositionXZ: 0
    m_HeightFromFeet: 0
    m_Mirror: 0
  m_EditorCurves: []
  m_EulerEditorCurves: []
  m_HasGenericRootTransform: 0
  m_HasMotionFloatCurves: 0
  m_Events: []
