%YAML 1.1
%TAG !u! tag:unity3d.com,2011:
--- !u!1045 &1
EditorBuildSettings:
  m_ObjectHideFlags: 0
  serializedVersion: 2
  m_Scenes:
  - enabled: 0
    path: 
    guid: 00000000000000000000000000000000
  - enabled: 1
    path: Assets/Scenes/SampleScene.unity
    guid: 2cda990e2423bbf4892e6590ba056729
  - enabled: 1
    path: Assets/Scenes/Menu.unity
    guid: fba112d9cf98ee848ac3917a2b8b514e
  - enabled: 1
    path: Assets/Scenes/SampleScenee.unity
    guid: 3778853da158a3d48a3fbc578705612d
  - enabled: 1
    path: Assets/Scenes/Guidance.unity
    guid: eccfb5efd1e7fc54bb41ce7c55a283cc
  - enabled: 1
    path: Assets/Scenes/Guidance2.unity
    guid: fb20b246980d5b34b9aa507b2fddb972
  - enabled: 1
    path: Assets/Scenes/Game_end.unity
    guid: 908bc65584dc16f4684c82cf6d9dc283
  m_configObjects: {}
  m_UseUCBPForAssetBundles: 0
